<?xml version="1.0" encoding="utf-8"?>
<!-- Generator: Adobe Illustrator 21.0.0, SVG Export Plug-In . SVG Version: 6.00 Build 0)  -->
<svg version="1.1" id="Layer_1" xmlns="http://www.w3.org/2000/svg" xmlns:xlink="http://www.w3.org/1999/xlink" x="0px" y="0px"
	 viewBox="0 0 633.1 816.1" style="enable-background:new 0 0 633.1 816.1;" xml:space="preserve">
<style type="text/css">
	.st0{fill:#e5554f;}
	.st1{opacity:0.3;}
	.st2{opacity:0.2;}
</style>
<g>
	<g>
		<g>
			<g>
				<g>
					<path class="st0" d="M475,185.8c-5.3,5.3-5.8,13.5-1.1,18.2c4.7,4.7,12.9,4.2,18.2-1.1l27.2-27.2c5.3-5.3,5.8-13.5,1.1-18.2
						c-4.7-4.7-12.9-4.2-18.2,1.1L475,185.8z"/>
				</g>
				<g>
					<path class="st0" d="M156.1,185.8c5.3,5.3,5.8,13.5,1.1,18.2c-4.7,4.7-12.9,4.2-18.2-1.1l-27.2-27.2
						c-5.3-5.3-5.8-13.5-1.1-18.2c4.7-4.7,12.9-4.2,18.2,1.1L156.1,185.8z"/>
				</g>
				<g>
					<path class="st0" d="M467,537.7c-5.3-5.3-5.8-13.5-1.1-18.2c4.7-4.7,12.9-4.2,18.2,1.1l27.2,27.2c5.3,5.3,5.8,13.5,1.1,18.2
						c-4.7,4.7-12.9,4.2-18.2-1.1L467,537.7z"/>
				</g>
				<g>
					<path class="st0" d="M162.4,537.7c5.3-5.3,5.8-13.5,1.1-18.2c-4.7-4.7-12.9-4.2-18.2,1.1l-27.2,27.2
						c-5.3,5.3-5.8,13.5-1.1,18.2c4.7,4.7,12.9,4.2,18.2-1.1L162.4,537.7z"/>
				</g>
				<g>
					<path class="st0" d="M305,116.8c0,7.5,5.4,13.7,12.1,13.7c6.6,0,12.1-6.2,12.1-13.7V78.4c0-7.5-5.4-13.7-12.1-13.7
						c-6.6,0-12.1,6.2-12.1,13.7V116.8z"/>
				</g>
				<g>
					<path class="st0" d="M49.3,365.3c-7.5,0-13.7,5.4-13.7,12.1c0,6.6,6.2,12.1,13.7,12.1h38.4c7.5,0,13.7-5.4,13.7-12.1
						c0-6.6-6.2-12.1-13.7-12.1H49.3z"/>
				</g>
				<g>
					<path class="st0" d="M541.3,365.3c-7.5,0-13.7,5.4-13.7,12.1c0,6.6,6.2,12.1,13.7,12.1h38.4c7.5,0,13.7-5.4,13.7-12.1
						c0-6.6-6.2-12.1-13.7-12.1H541.3z"/>
				</g>
			</g>
			<g>
				<g>
					<path class="st0" d="M406.8,589.6H222.3c-7.4,0-13.3,5.4-13.3,12.8c-0.1,7.4,5.9,13.8,13.2,13.8h184.5
						c7.3,0,13.3-5.4,13.4-12.8C420.1,596,414.1,589.6,406.8,589.6z"/>
					<path class="st0" d="M406.8,629.2H222.3c-7.3-0.1-13.3,5.4-13.4,12.8c0,7.3,5.9,13.8,13.3,13.8h184.5c7.4,0,13.3-5.4,13.4-12.8
						C420.1,635.7,414.1,629.2,406.8,629.2z"/>
					<path class="st0" d="M406.8,668.8H222.3c-7.3,0-13.3,5.4-13.4,12.8c0,7.4,5.9,13.8,13.3,13.8h184.5c7.4,0,13.3-5.4,13.4-12.8
						C420.1,675.3,414.2,668.9,406.8,668.8z"/>
					<path class="st0" d="M375.8,708.4H253.4c-7.3,0-13.3,5.6-13.4,12.9c0,7.4,11.5,11.5,21.2,12.2c9.7,0.8,31.2,23.9,53.5,24
						c22.3,0.1,43.1-22.7,54.4-24c8.3-0.9,19.9-4.1,19.9-11.5C389,714.8,383.1,708.5,375.8,708.4z"/>
				</g>
			</g>
			<g>
				<g>
					<path class="st0" d="M419.2,580.1H209.9l-0.3-9.7c-0.7-24.4-16.2-46.7-34.2-72.5c-22.2-31.9-49.9-71.6-57.7-129.2
						C111,318.1,126,268.4,160.2,229c18.8-21.7,42.9-39.8,69.7-52.3c26.7-12.5,55.7-19.3,83.6-19.6h2h0.1c28,0.3,56.9,7.1,83.6,19.6
						c26.8,12.6,50.9,30.7,69.7,52.3c34.2,39.5,49.2,89.1,42.4,139.7c-7.8,57.6-35.4,97.3-57.7,129.2c-18,25.8-33.5,48.1-34.2,72.5
						L419.2,580.1z M228.7,560.1h171.5c3.8-26,19.3-48.3,36.9-73.6c22.1-31.7,47.1-67.6,54.2-120.4c7.7-57.5-16.3-99.2-37.7-124
						c-34.2-39.5-87.2-64.5-138.3-65h-1.7c-51.1,0.6-104.1,25.5-138.3,65c-21.5,24.8-45.5,66.5-37.7,124
						c7.1,52.8,32.1,88.7,54.2,120.4C209.5,511.8,225,534,228.7,560.1z"/>
				</g>
			</g>
		</g>
		<g>
			<g>
				<path class="st0" d="M318.8,229.8v52.7c0.2,0.3,0.3,0.7,0.3,1c0,0.3,2.7,15.3,13,30.7c8,12,18.2,20.9,30.4,26.7
					c0.4-0.2,0.8-0.3,1.3-0.4c10.2-1.3,17.5-4.9,21.5-10.9c6.2-9.1,3.2-20.9,3.1-21c0-0.1-0.1-0.3-0.1-0.4c-0.2,0-0.4,0-0.6-0.1
					c-4.8-0.6-8.4-2.7-8.5-2.8c-1.3-0.8-1.8-2.5-1-3.8c0.8-1.3,2.5-1.8,3.8-1c0.5,0.3,10.9,6.2,17.9-2.5c1-1.2,2.7-1.4,3.9-0.4
					c1.2,1,1.4,2.7,0.4,3.9c-2.1,2.7-4.7,4.6-7.6,5.7c0.6,2.6,2.2,12.1-1.5,21.5c15.9,3.1,32.9-3.9,40.6-13.1
					c10.6-12.8,11.3-26.9,11.3-27.1c0-0.1,0-0.3,0-0.4c1.5-34.4-24.3-37.8-25.4-38l-2.5-0.3l-0.9-2.3c-7.8-19.6-27.7-23-38-23.4
					c0.5,3.6,0.8,8.6-0.3,14c-1.4,6.8-4.6,12.9-9.3,17.5c-5.8,5.8-13.8,9.4-23.6,10.6c-0.2,0-0.3,0-0.5,0c-0.3,0-0.6,0-0.9-0.1
					c-1.2,4.2-3.3,7-3.5,7.3c-0.5,0.7-1.4,1.1-2.2,1.1c-0.6,0-1.2-0.2-1.7-0.6c-1.2-0.9-1.5-2.6-0.6-3.9c0.3-0.4,6.6-9.1,1-17.5
					c-0.8-1.3-0.5-3,0.8-3.8c1.3-0.8,3-0.5,3.8,0.8c1.9,2.9,2.8,5.7,3.1,8.4c18.8-2.5,23.9-14.5,25.3-21.5
					c1.6-7.7-0.5-14.6-0.7-15.1c-3.9-11.3-14-18.4-26.1-18.4c-3.4,0-6.8,0.6-10.2,1.7c-6.7,2.2-11.5,6.9-14,14.1
					c-2,5.7-1.9,10.8-1.9,10.9L318.8,229.8z"/>
				<path class="st0" d="M450.6,394c-4.5,1.9-10,3.4-16.4,3.4c-7.9,0-17.2-2.3-27.2-9c-2.2,2.2-5.7,5.1-10.4,7.4
					c-4.1,2-9.5,3.8-16,3.8c-5.9,0-12.6-1.4-20.1-5.3c-2-1.1-2.8-3.6-1.8-5.6c1.1-2,3.6-2.8,5.6-1.8c21.6,11.2,35.3-2.4,38.3-5.9
					c0.1-0.2,0.3-0.5,0.4-0.7c0.7-0.9,1.7-1.5,2.8-1.6c1.1-0.2,2.2,0.1,3.1,0.8c0.3,0.2,0.5,0.4,0.7,0.7
					c12.8,9.3,25.5,11.4,37.8,6.3c9.5-4,15.2-10.8,15.2-10.9c0.2-0.2,0.4-0.4,0.6-0.6c5.5-8.8,6.9-17.7,4.3-26.8
					c-2.3-7.8-7-12.8-7-12.9l-1.9-2l1.2-2.5c7.5-16.6,0-28.2-5.8-34c-1.5,6.3-4.7,15.5-12,24.2c-5.5,6.6-13.8,11.8-23.6,14.6
					c-5.1,1.5-10.3,2.2-15.4,2.2c-4.2,0-8.4-0.5-12.4-1.5c-3.5,4.3-8.1,7.5-14,9.7c4.7,1.2,9.6,2,14.8,2.4c2.3,0.2,4,2.2,3.8,4.5
					c-0.2,2.2-2,3.8-4.1,3.8c-0.1,0-0.2,0-0.4,0c-15.7-1.3-29.7-5.9-41.5-13.7c-9.5-6.2-17.7-14.4-24.3-24.4
					c-2.5-3.7-4.5-7.4-6.2-10.9v123c0,12.2,0.4,23.1,6,33.3c6.5,11.9,18.1,15.5,18.2,15.5l0,0c6.8,2.1,13.3,3.2,19.5,3.2
					c10.5,0,19.9-3.1,27.8-9.1c6-4.6,8.9-9.2,8.9-9.3l1.1-1.8l0.2,0c1.1-1.7,2.8-4.8,4-8.8c2.1-7.2,5.2-24.6-6.6-40.4
					c-0.8,3.1-2.4,5.5-3.9,7.2c-3,3.2-6.3,4.5-6.7,4.7c-0.3,0.1-0.7,0.2-1,0.2c-1.1,0-2.2-0.7-2.6-1.8c-0.5-1.4,0.2-3,1.6-3.6
					c0.1,0,2.6-1.1,4.7-3.4c2.7-3,3.4-6.8,2.3-11.2c-0.4-1.5,0.5-3,2-3.4c0.3-0.1,0.6-0.1,0.9-0.1c1.5-0.6,3.4-0.3,4.6,0.9
					c19.6,20,15.4,43.8,12.7,53.1c-0.5,1.8-1.1,3.4-1.8,4.9c16.8-4.1,28.1-15.9,32.8-34.4c0-0.3,0-0.6,0.1-1c0-0.3,0.1-0.5,0.2-0.8
					c0.6-2.5,1.5-10.9-2.5-17.7c-1.2-2-0.5-4.5,1.4-5.7c2-1.2,4.5-0.5,5.7,1.4c2.6,4.4,3.6,9,4,12.8c4.2-5.1,6.9-11.4,8-18.8
					c0.5-3.2,0.6-6.1,0.5-8.6C458,390.2,454.6,392.3,450.6,394z"/>
			</g>
			<g>
				<path class="st0" d="M310.2,309.4c-1.2,2.4-2.5,4.9-4.1,7.4c-3.5,5.6-7.9,11.3-13.6,16.6c-7.6,7.1-17.5,13.4-30,17.7
					c-7.2,2.4-15.3,4.2-24.3,5l-0.1,0l-0.1,0c-0.1,0-4.6,0.3-11.4,0.3c-4.3,0-9.5-0.1-15-0.5c-5.5-0.4-11.3-1-16.8-2.1
					c-3.7-0.7-7.3-1.7-10.6-2.9c-2.2-0.8-3.3-3.2-2.5-5.3c0.8-2.2,3.2-3.3,5.3-2.5c2.8,1,6,1.9,9.4,2.5c3.4,0.7,7,1.2,10.5,1.5
					c7.1,0.7,14.2,0.9,19.7,0.9c6,0,10.2-0.2,10.8-0.3c14.1-1.3,25.4-5,34.5-9.8c9.1-4.9,16-11,21.3-17.4c3.5-4.3,6.3-8.6,8.5-12.8
					c3-5.6,4.9-10.9,6.1-15.1c1.6-5.6,2-9.3,2-9.4l0,0l0,0l0,0l0,0h0c0-0.5,0.2-0.9,0.4-1.3v-52.8l0-0.1l0,0v0l0,0c0,0,0-0.1,0-0.2
					c0-0.5,0-2.1-0.3-4.1c-0.3-2.1-0.9-4.6-1.9-7.3c-0.7-1.7-1.6-3.5-2.7-5.2c-1.5-2.2-3.4-4.2-6-5.8c-1.5-0.9-3.1-1.7-5.1-2.4
					c-3.5-1.1-6.9-1.7-10.2-1.7c-4.5,0-8.8,1-12.5,2.8c-3.7,1.8-7,4.5-9.5,7.9c-1.7,2.2-3.1,4.8-4.1,7.7c0,0,0,0,0,0.1
					c0,0.1-0.1,0.3-0.1,0.5c-0.1,0.4-0.3,1.1-0.4,1.9c-0.3,1.6-0.7,4-0.7,6.7c0,1.9,0.2,3.9,0.6,6c0.5,2.6,1.4,5.2,2.8,7.8
					c1.4,2.5,3.3,4.9,5.7,7c1.7,1.4,3.6,2.6,5.9,3.7c3,1.4,6.6,2.5,10.9,3c0.1-0.8,0.3-1.6,0.5-2.3c0.5-1.7,1.4-3.4,2.6-5.1
					c0.9-1.2,2.6-1.5,3.9-0.6c1.2,0.9,1.5,2.6,0.6,3.9c-0.9,1.2-1.4,2.3-1.8,3.4c-0.4,1.1-0.5,2.2-0.5,3.3c0,1.2,0.2,2.4,0.5,3.5
					c0.3,1.1,0.7,2.1,1.1,3c0.8,1.7,1.7,2.9,1.7,2.9l0,0h0c0.9,1.2,0.7,2.9-0.5,3.9c-1.2,0.9-2.9,0.7-3.9-0.5
					c-0.1-0.1-0.7-0.9-1.5-2.2c-0.7-1.3-1.6-3-2.2-5.1c-0.4,0.1-0.9,0.1-1.3,0.1c-5.9-0.7-11-2.3-15.2-4.5c-4.2-2.2-7.6-5-10.3-8.1
					c-1.8-2.1-3.2-4.3-4.3-6.5c-1.5-3-2.5-6.1-3.1-9c-0.5-2.7-0.7-5.3-0.7-7.7c0-2.4,0.2-4.6,0.5-6.3c-1.7,0.1-3.8,0.2-6.1,0.6
					c-3.5,0.5-7.4,1.4-11.4,3c-2.6,1-5.2,2.3-7.7,4c-3.3,2.2-6.4,5-8.9,8.7c-1.5,2.1-2.8,4.5-3.8,7.2l-0.8,2l-2.1,0.5l0,0l0,0l0,0
					l0,0c0,0-0.1,0-0.1,0c-0.1,0-0.3,0.1-0.6,0.2c-0.5,0.1-1.3,0.4-2.2,0.7c-1.9,0.7-4.5,1.7-7.3,3.3c-1.8,1.1-3.7,2.3-5.5,3.9
					c-2.4,2-4.6,4.5-6.3,7.5c-1,1.7-1.8,3.6-2.4,5.7c-0.7,2.4-1.1,5-1.1,8c0,2.6,0.3,5.5,1,8.6l0.2,0.8c0,0,0,0,0,0.1
					c0.1,0.5,0.4,1.3,0.7,2.3c0.7,1.9,2,4.6,4.2,7.2c1.4,1.8,3.2,3.5,5.6,5.1c3.1,2.1,7.1,4,12.3,5.1c3,0.6,6.4,1,10.3,1
					c3.5,0,7.4-0.3,11.6-1c-0.9-1.8-1.5-3.7-2-5.5c-0.9-3.4-1.2-6.6-1.2-9.3c0-2.6,0.2-4.8,0.5-6.4c0.1-0.8,0.2-1.4,0.3-1.8
					c-0.3-0.1-0.6-0.2-0.9-0.3c-2.3-0.9-4.6-2.4-6.6-4.5c-1-1.1-1-2.9,0.2-3.9c1.1-1,2.9-1,3.9,0.2c1.4,1.6,3,2.5,4.5,3.1
					c1.5,0.6,3.2,0.8,4.7,0.8c2.3,0,4.5-0.5,6.1-1.1c1.6-0.5,2.7-1.1,2.7-1.1h0v0c1.3-0.7,3-0.2,3.7,1.1c0.7,1.3,0.2,3-1.1,3.7
					c-0.1,0.1-1.4,0.7-3.4,1.4c-1.5,0.5-3.4,1-5.6,1.3c0,0.2-0.1,0.4-0.1,0.5h0l0,0c0,0,0,0,0,0.1c0,0.1,0,0.2-0.1,0.3
					c-0.1,0.3-0.2,0.8-0.3,1.4c-0.2,1.3-0.4,3.1-0.4,5.1c0,1.9,0.2,3.9,0.6,6.1c0.4,2.1,1.2,4.3,2.3,6.3c0.8,1.4,1.7,2.7,2.8,3.9
					c1.5,1.7,3.5,3.2,6,4.6c3.4,1.8,7.8,3.3,13.6,4c2.3,0.3,3.9,2.3,3.6,4.6c-0.3,2.3-2.3,3.9-4.6,3.6c-5.6-0.7-10.4-2-14.4-3.8
					c-4-1.8-7.2-4.1-9.8-6.7c-0.1-0.1-0.1-0.1-0.1-0.2c-6.2,1.2-11.8,1.7-16.8,1.7c-7.5,0-13.7-1.2-18.9-3.1
					c-5.2-1.9-9.2-4.6-12.4-7.5c-2.1-1.9-3.8-4-5.1-5.9c-1.3-1.9-2.2-3.6-3-5.2c-1.4,1.5-3,3.3-4.5,5.4c-1.4,2-2.7,4.2-3.7,6.7
					c-1.4,3.3-2.3,7-2.3,11c0,3.5,0.7,7.3,2.4,11.5l1,2.5l-1.9,1.9h0l0,0h0l0,0l0,0c0,0-0.1,0.1-0.1,0.1c-0.1,0.1-0.3,0.3-0.5,0.6
					c-0.5,0.6-1.1,1.4-1.9,2.6c-1.5,2.3-3.3,5.5-4.5,9.5c-0.8,2.7-1.3,5.6-1.3,8.8c0,3.1,0.5,6.4,1.7,10c0.9,2.6,2.1,5.2,3.9,8
					c0.4,0.3,0.8,0.8,1.1,1.3l0,0l0,0c0,0,0,0,0,0.1c0,0.1,0.1,0.2,0.3,0.4c0.2,0.4,0.6,1,1.2,1.7c1.1,1.4,2.9,3.3,5.3,5.1
					c1.6,1.2,3.6,2.3,5.9,3.2c3,1.2,6.7,2,11.2,2c3.8,0,8.1-0.6,13-2.1c5-1.5,10.6-3.9,16.9-7.5c0.3-0.2,0.7-0.3,1-0.4
					c-0.5-1.7-0.8-3.5-0.8-5.5c0-1.1,0.1-2.3,0.3-3.5c0.3-1.5,1.7-2.5,3.2-2.2c1.5,0.3,2.5,1.7,2.2,3.2c-0.2,0.9-0.2,1.8-0.2,2.6
					c0,1.5,0.2,2.9,0.7,4.1c0.4,1.2,1,2.3,1.6,3.3c1.3,1.9,2.9,3.4,4,4.2c0.7,0.5,1.2,0.8,1.3,0.8l0,0l0,0l0,0
					c1.3,0.7,1.8,2.4,1.1,3.7c-0.7,1.3-2.4,1.8-3.7,1.1c-0.1-0.1-0.9-0.5-2.1-1.4c-1-0.8-2.3-1.9-3.6-3.4c-0.2,0.2-0.5,0.5-0.8,0.6
					c-6.8,3.9-13,6.5-18.6,8.2c-5.7,1.7-10.8,2.4-15.4,2.4c-6.2,0-11.4-1.3-15.7-3.2c-2.7-1.2-5-2.6-6.9-4.1c0,2.5,0.2,5.4,0.7,8.4
					c0.6,3.2,1.5,6.5,2.9,9.7c1,2.2,2.2,4.3,3.7,6.3c0.4,0.5,0.7,1,1.1,1.4c0.1-1.3,0.3-2.7,0.7-4.2c0.6-2.8,1.7-5.7,3.4-8.6
					c1.2-2,3.7-2.6,5.7-1.4c2,1.2,2.6,3.7,1.4,5.7c-1.2,2-1.9,4.1-2.4,6.2c-0.5,2.1-0.6,4.1-0.6,5.9c0,2.1,0.2,3.8,0.4,4.9
					c0.1,0.3,0.1,0.6,0.1,0.8c0.1,0.2,0.2,0.5,0.2,0.7c0,0,0,0.1,0,0.2c0,0.1,0,0.1,0,0.3c0,0.1,0,0.2,0,0.3c0,0.1,0,0.1,0,0.2
					c0.3,1.3,0.8,3,1.5,4.9c1.4,4.2,3.9,9.7,8,14.8c2.7,3.4,6.2,6.7,10.6,9.4c2.5,1.5,5.3,2.9,8.5,4c1.4,0.5,2.8,0.9,4.3,1.3
					c-0.6-1.5-1.3-3.1-1.8-4.9c-1.3-4.6-2.3-10.3-2.3-16.4c0-5.8,0.9-12,3.2-18.3c2.3-6.3,6.1-12.6,11.8-18.4v0c0,0,0,0,0,0
					c0,0,0,0,0,0h0c0.3-0.3,2.4-2.4,6-5.1c3.8-2.7,9.2-6,16-8.3c4.5-1.5,9.6-2.5,15.2-2.5c3.6,0,7.3,0.4,11.2,1.4
					c3.9,0.9,7.9,2.4,12,4.6c2,1.1,2.8,3.6,1.8,5.6c-1.1,2-3.6,2.8-5.6,1.8c-3.5-1.8-6.9-3.1-10.1-3.9c-3.2-0.8-6.3-1.1-9.2-1.1
					c-4.5,0-8.7,0.8-12.5,2c-3.8,1.2-7.1,2.9-9.9,4.5c-5.6,3.3-8.9,6.7-8.9,6.7l0,0l0,0l0,0c-4.9,5-8,10.2-10,15.5
					c-1.9,5.2-2.7,10.5-2.7,15.4c0,5.3,0.9,10.1,2,14.1c0.9,3,2.1,5.6,3.1,7.3c0.3,0.6,0.6,1.1,0.9,1.5l0.2,0l1.1,1.8h0l0,0l0,0l0,0
					l0,0l0,0l0,0l0,0c0,0,0,0.1,0.1,0.2c0.1,0.1,0.2,0.4,0.5,0.7c0.4,0.6,1.1,1.5,2,2.6c1.8,2.1,4.7,5,8.5,7.6
					c2.6,1.8,5.6,3.4,9.1,4.8c4.7,1.8,10.2,3,16.7,3c5.6,0,11.9-0.9,19.1-3.1c0,0,0.1,0,0.1,0c0.2-0.1,0.5-0.2,0.8-0.4
					c0.7-0.3,1.8-0.9,3-1.6c2.5-1.4,5.8-3.6,8.7-6.4c2-1.9,3.8-4.1,5.2-6.6c1.1-2,2-3.7,2.8-5.3c0.7-1.6,1.3-3.2,1.8-5
					c0.3-1.2,0.6-2.5,0.8-3.9c0.3-1.9,0.5-4.2,0.7-6.8c0.2-3.5,0.3-7.9,0.4-13.3l0,0V309.4z"/>
				<g>
					<g>
						<path class="st0" d="M280.1,300.6c0.1-0.9,0-1.8-0.2-2.6c-0.3-1.2-0.7-2.5-1.4-3.6c-1.4-2.3-3.7-4.2-6.5-5.4l-0.9-0.4l2.6-13
							l-4.9-1l-2.6,13l-1,0c-2.3,0-4.5,0.6-6.3,1.5c-1.9,0.9-3.4,2.2-4.5,3.8c-0.5,0.7-0.9,1.5-1.2,2.4L280.1,300.6z M274,293.9
							c0.4,0.1,0.7,0.5,0.6,0.9c-0.1,0.4-0.5,0.7-0.9,0.6c-0.4-0.1-0.7-0.5-0.6-0.9C273.2,294.1,273.6,293.8,274,293.9z
							 M272.2,296.7c0.4,0.1,0.6,0.4,0.6,0.8c-0.1,0.4-0.4,0.6-0.8,0.5c-0.4-0.1-0.6-0.4-0.6-0.8
							C271.5,296.9,271.9,296.6,272.2,296.7z M271,294.8c0.4,0.1,0.6,0.4,0.6,0.8c-0.1,0.4-0.4,0.6-0.8,0.5
							c-0.4-0.1-0.6-0.4-0.6-0.8C270.2,295,270.6,294.8,271,294.8z M269.5,292.3c0.4,0.1,0.7,0.5,0.6,0.9c-0.1,0.4-0.5,0.7-0.9,0.6
							c-0.4-0.1-0.7-0.5-0.6-0.9C268.7,292.5,269.1,292.2,269.5,292.3z"/>
						<path class="st0" d="M253.1,300.8c0.4,1.5,1.1,2.9,2.1,4.1c2,2.5,5.2,4.5,8.9,5.3c2.8,0.6,5.6,0.4,8-0.4
							c2.4-0.8,4.4-2.2,5.8-4c0.9-1.2,1.6-2.6,1.9-4.1l-27-5.4C252.6,297.9,252.7,299.4,253.1,300.8z M272.3,304
							c-0.1,0.4-0.5,0.7-1,0.6c-0.4-0.1-0.7-0.5-0.7-0.9c0.1-0.4,0.5-0.7,1-0.6C272.1,303.2,272.4,303.6,272.3,304z M271.8,300.9
							c0.4,0.1,0.7,0.5,0.7,0.9c-0.1,0.4-0.5,0.7-1,0.6c-0.4-0.1-0.7-0.5-0.7-0.9C270.9,301.1,271.3,300.8,271.8,300.9z M269.5,306
							c-0.1,0.5-0.6,0.8-1.2,0.7c-0.5-0.1-0.9-0.6-0.8-1.1c0.1-0.5,0.6-0.8,1.2-0.7C269.3,305,269.6,305.5,269.5,306z M269.4,303.4
							c-0.1,0.5-0.6,0.8-1,0.7c-0.5-0.1-0.8-0.6-0.7-1c0.1-0.5,0.6-0.8,1-0.7C269.1,302.5,269.5,303,269.4,303.4z M268.9,299.8
							c0.4,0.1,0.7,0.5,0.7,0.9c-0.1,0.4-0.5,0.7-1,0.6c-0.4-0.1-0.7-0.5-0.7-0.9C268.1,300,268.5,299.8,268.9,299.8z M265.9,303.1
							c0.5,0.1,0.9,0.6,0.8,1.1c-0.1,0.5-0.6,0.8-1.2,0.7c-0.5-0.1-0.9-0.6-0.8-1.1C264.8,303.3,265.3,303,265.9,303.1z
							 M265.4,305.6c0.6,0.1,1,0.7,0.9,1.3c-0.1,0.6-0.7,0.9-1.3,0.8c-0.6-0.1-1-0.7-0.9-1.3C264.2,305.9,264.8,305.5,265.4,305.6z
							 M264.2,300.8c0.5,0.1,0.8,0.6,0.7,1c-0.1,0.5-0.6,0.8-1,0.7c-0.5-0.1-0.8-0.6-0.7-1C263.2,301,263.7,300.7,264.2,300.8z
							 M260.8,304c0.6,0.1,1,0.7,0.9,1.3c-0.1,0.6-0.7,0.9-1.3,0.8c-0.6-0.1-1-0.7-0.9-1.3C259.7,304.3,260.2,303.9,260.8,304z"/>
					</g>
					<g>
						<g class="st1">
							<ellipse class="st0" cx="190.4" cy="327.3" rx="8.6" ry="9"/>
							<ellipse class="st0" cx="190.4" cy="327.3" rx="6" ry="6.3"/>
							<ellipse class="st0" cx="190.4" cy="327.3" rx="4.2" ry="4.4"/>
						</g>
						<g class="st2">
							<g>
								<polygon class="st0" points="175.4,338.8 175.6,336.6 173.4,335.9 175.8,334.3 177.9,334.9 177.8,337.2 								"/>
								<polygon class="st0" points="178,337.1 178.2,334.8 176,334.2 178.4,332.6 180.5,333.2 180.3,335.5 								"/>
							</g>
						</g>
					</g>
				</g>
			</g>
			<g>
				<g>
					<path class="st0" d="M284.3,555.2c-0.4,0-0.9,0-1.3-0.1c-5.5-0.7-9.3-5.7-8.6-11.2c0-0.3,3.1-26.2-10.9-43.4
						c-3.5-4.3-2.8-10.6,1.5-14.1s10.6-2.8,14.1,1.5c19.5,24.1,15.3,57.2,15.1,58.6C293.5,551.6,289.2,555.2,284.3,555.2z"/>
				</g>
				<g>
					<path class="st0" d="M344.7,555.2c-4.9,0-9.2-3.6-9.9-8.7c-0.2-1.4-4.3-34.5,15.1-58.6c3.5-4.3,9.8-5,14.1-1.5
						c4.3,3.5,5,9.8,1.5,14.1c-14,17.3-10.9,43.2-10.9,43.4c0.7,5.5-3.2,10.5-8.6,11.2C345.5,555.2,345.1,555.2,344.7,555.2z"/>
				</g>
			</g>
		</g>
	</g>
</g>
</svg>
