<?xml version="1.0" encoding="utf-8"?>
<!-- Generator: Adobe Illustrator 21.0.0, SVG Export Plug-In . SVG Version: 6.00 Build 0)  -->
<svg version="1.1" id="_ÎÓÈ_1" xmlns="http://www.w3.org/2000/svg" xmlns:xlink="http://www.w3.org/1999/xlink" x="0px" y="0px"
	 viewBox="0 0 150 150" style="enable-background:new 0 0 150 150;" xml:space="preserve">
<style type="text/css">
	.st0{fill:#FFFFFF;}
</style>
<title>LUNOMarquetteArtboard 16</title>
<path class="st0" d="M142.7,46.3c-14.8-3.2-29.6-6.1-44.5-8.9c-1.7-0.3-4.1,0.9-5.7,2c-9.3,7.1-17.7,15.9-30.6,16
	c-0.1,0-0.3,0-0.4,0c-2.9,0.4-4.8,2.1-4.8,5s-1.6,3.9-4,4.6c-7.2,2.1-13.5,6.4-18,12.3c-3.2,4.1-7.3,6.6-11.9,8.6s-9.2,4.3-13.7,6.7
	c-1.5,0.8-2.5,2.6-4.2,4.4l9.7,3c-3.9,2.8-7.4,5.1-10.8,7.6c-0.7,0.5-1.5,1.3-1.4,2s1.1,1.3,1.8,1.5c1.3,0.4,2.7,0.6,4.1,0.7
	c3.3,0.3,6.6,0.5,9.8,0.9l6.6,1.2c4.8,0.9,9.5,1.8,14.3,2.7c4.3,0.9,8.6,1.9,12.8,3c4.2,1.1,8.4,1.7,12.7,1.9
	c2.4,0.4,4.6,0.4,6.6-1.5c2.6-2.5,5.2-4.9,7.9-7.3l-9,9.1l9.1-8.3c2-1.8,3.9-3.6,5.6-5.7c1-1.2,1.9-2.4,2.7-3.7l-2.8,2.9
	c1.2-1.3,2.4-2.6,3.6-3.9l-0.7,1l7.9-8c1.3-1.1,2.7-2.1,4.2-3.1c13.3-8.5,26.3-17.4,39.4-26.3c4.4-3,4.2-3.5-0.3-6.3
	c2.3-2.1,4.4-4,6.4-6C149.1,50.3,148.5,47.6,142.7,46.3z M87.6,59.8c-9.9,2.9-19.1,1.8-28.9,0.7C62.3,56,80.5,55.8,87.6,59.8z
	 M95.2,73.8c-8.8,2.1-17.7,1.3-26.5,0.2c-1.3-0.2-2.6-0.7-3.7-1.6c5.1,0,10.3,0.3,15.4-0.1s10.3-1.6,16.1-2.6L95.2,73.8z M57.2,84.3
	c7.1,0.3,14.2,0.6,21.4,0.8c1.3-0.1,2.6,0.2,3.8,0.8c-3.3,2.1-6.6,4.1-9.8,6.3c-4.1,2.7-8.1,5.7-12.3,8.3c-1.1,0.7-3.1,1.3-4,0.8
	c-8.2-4.9-17.3-4.7-26.3-5.9c-0.6-0.1-1.2-0.2-1.9-0.3c-0.1,0-0.1-0.2-0.4-0.5c0.5-0.5,1.1-0.9,1.7-1.2c5.4-2.5,9.8-6.6,12.6-11.8
	c1.9-3.4,5.1-6,8.9-7c0.3,1.6,0.8,3,0.7,4.3C51.2,83.1,53.8,84.2,57.2,84.3z M55.8,81.7c-0.8-0.1-1.4-1.3-2-2
	c11.8,2.6,23.2,1.6,34.6,0.9C77.7,84.3,66.8,83.3,55.8,81.7L55.8,81.7z M55,75.5c2.6-2.9,5.5-2.9,8.4-0.8c1.8,1.1,3.9,1.8,6,1.8
	c5.3,0.3,10.6,0.2,16,0.3c0.6,0,1.2,0.1,2,0.2C82.6,80.2,59.2,79,55,75.5z M68.2,68.9c4.5-0.4,9.1-0.6,13.5-1.2
	c2.8-0.4,5.5-1.6,8.3-2.2c1.8-0.2,3.5-0.2,5.3-0.1l0.1,2C86.7,71.1,77.5,69.9,68.2,68.9L68.2,68.9z M84.5,65.5
	c-7.4,0-14.9,0.1-22.3-0.1c-1.2-0.2-2.1-0.9-2.7-2L88,61.9C88.4,64.1,87.2,65.5,84.5,65.5L84.5,65.5z M136.5,65.2
	c-12.2,8.3-24.3,16.9-36.9,24.6c-6.9,4.3-12.2,9.8-17.5,15.8c-3.8,4.3-8.2,8-12.2,12.1c-1.7,1.7-3.4,1.6-5.5,1.2
	c-15-2.9-30-5.8-45.1-8.6c-3.7-0.7-7.6-0.8-11.4-1.6c4.6-3.4,7.8-9.1,15.4-6.3c6.4,2.3,13.5,2.6,20.2,4.3c5,1.4,10,3.1,14.8,5.2
	c2.7,1.1,4.5,0.4,5.9-1.7c5.6-8.1,13.8-12.7,22.4-16.6c2.1-1,4.1-2.1,6-3.3c8.2-4.9,16.4-9.7,24.5-14.8c5.6-3.5,11-7.4,16.5-11
	c1.1-0.6,2.2-1,3.4-1.4l0.4,1.1C137.2,64.6,136.8,64.9,136.5,65.2L136.5,65.2z M123.5,69.5c-4.5,2.7-9.3,4.7-13.9,7.3
	c-5.4,3.2-10.6,6.6-15.9,9.9c-3.4,2.3-6.9,4.3-10.5,6.1c-8,3.6-15.2,8.3-20.9,15c-0.9,0.9-2.2,1.2-3.4,1
	c-11.3-5.2-23.4-6.8-35.4-9.2c-4.7-1-9.3-2.6-13.6-4.7c4-1.9,7.8-4.1,11.9-5.7c6.1-2.3,11.3-5.5,15.4-10.9
	c4.3-5.8,10.5-9.4,17.2-11.5c2.2-0.7,5.2,1,7.8,1.6c-0.4,0.8-0.6,2.1-1.2,2.3c-2.8,0.8-5.6,1.4-8.5,1.8c-5.3,0.5-10,3.6-12.4,8.4
	c-3.6,6.5-9.2,10.4-16.2,12.5c-1,0.4-1.9,0.9-2.8,1.4c1.7,1,2.7,1.9,3.8,2.1c4.5,0.8,9.1,1.1,13.6,2.1c5.4,1.2,10.8,2.7,16.1,4.4
	c3,1,4.8,0.9,7.5-1.2c8-5.9,16.4-11.1,24.7-16.6c6.2-4.2,12.5-8.3,18.8-12.5c0.5-0.5,0.9-1,1.3-1.6l-0.8-1l-14.8,9.8l-0.5-3.8
	l4.5-2.6l0,0c2.6-0.4,4.1-2.2,3.6-4.5s-1.7-5.5-3.2-5.8c-4.2-0.9-5.9-4.3-7.1-5.6c3-3.8,5.9-7.6,9.1-11.2c0.6-0.7,2.4-0.9,3.5-0.7
	c5.3,1.2,10.5,2.5,15.7,3.8l0.5-1.6c-1-0.4-2-0.9-3.1-1.2c-4.4-1.3-8.8-2.6-13.2-3.6c-1.6-0.3-3.3,0.1-4.7,1c-2.8,2.4-5.5,5-7.9,7.7
	c-3.7,3.8-7.9,4.3-12.9,2.5L88,46.1c0.3-0.2,0.7-0.4,0.9-0.7c4.6-5.5,10.4-6.3,17.2-4.7c12.5,3,25.1,5.6,37.7,8.4
	c0.6,0.2,1.1,0.5,1.7,0.9C139,57.8,131.9,64.5,123.5,69.5L123.5,69.5z"/>
</svg>
